…
The highest scoring clips are among those with the fewest views.

According to the p-value, which is the best movie?

Scores %>%  
  filter(p_value < 0.0001) %>%
  arrange(desc(pessimist))

## # A tibble: 129 x 7
##    video        wins total win_rate  p_value lower pessimist
##    <chr>       <int> <int>    <dbl>    <dbl> <dbl>     <dbl>
##  1 HE7cxOa9pXg    23    25    0.92  9.72e- 6    20     0.8  
##  2 VCVuWMSd4Nk    62    72    0.861 1.34e-10    56     0.778
##  3 0o-FA5hXaf4    38    44    0.864 4.72e- 7    33     0.75 
##  4 oMgKyG_aAiE    28    32    0.875 9.65e- 6    24     0.75 
##  5 DFMpoEsC-Tc    49    59    0.831 1.35e- 7    43     0.729
##  6 cQzPNT780bs    62    76    0.816 1.16e- 8    55     0.724
##  7 GVaPB-I0d30    49    60    0.817 3.78e- 7    43     0.717
##  8 iaYgMbiR9Rg    24    28    0.857 9.00e- 5    20     0.714
##  9 hED4Tz1JM50    75    94    0.798 2.41e- 9    67     0.713
## 10 3hacWx_k2Oo    56    69    0.812 8.42e- 8    49     0.710
## # … with 119 more rows
…
